## Interface: 70100
## Title: Lib: HereBeDragons-ZGV
## Notes: HereBeDragons is a data API for the World of Warcraft mapping system
## Author: Nevcairiel
## X-eMail: h.leppkes@gmail.com
## X-Category: Library
## X-License: BSD
## X-Website: http://www.wowace.com/addons/herebedragons/
## Version: 1.11-release-1-gc4cb807
## X-Curse-Packaged-Version: 1.11-release-1-gc4cb807
## X-Curse-Project-Name: HereBeDragons-ZGV
## X-Curse-Project-ID: herebedragons
## X-Curse-Repository-ID: wow/herebedragons/mainline

LibStub\LibStub.lua
CallbackHandler-1.0\CallbackHandler-1.0.lua

HereBeDragons-1.0.lua
HereBeDragons-Pins-ZGV.lua
